{
    "title": "akapetye",
    "img": "",
    "intro": "",
    "phrases": [
        {
            "meta": {
                "id": 1,
                "begin_time_offset": 4,
                "end_time_offset": 13044
            },
            "words": {
                "vernacular": "AIATSIS archive recording. Harold Koch fieldtape 78/9-7 side A from the Koch 803 collection.",
                "gloss": ""
            }
        },
        {
            "meta": {
                "id": 2,
                "begin_time_offset": 13044,
                "end_time_offset": 15086
            },
            "words": {
                "vernacular": "HK: Ye, alkaperte.",
                "gloss": ""
            }
        },
        {
            "meta": {
                "id": 3,
                "begin_time_offset": 15086,
                "end_time_offset": 17731
            },
            "words": {
                "vernacular": "Alkaperte artntwenke? (Yeah)",
                "gloss": ""
            }
        },
        {
            "meta": {
                "id": 4,
                "begin_time_offset": 17731,
                "end_time_offset": 26029
            },
            "words": {
                "vernacular": "Wele aynanthe pweleke akwenherre, wantewarlepe, apmerarle Emu Bore warlepe .",
                "gloss": "Well, we had put the cattle into what's it—into the Emu Bore paddock."
            }
        },
        {
            "meta": {
                "id": 5,
                "begin_time_offset": 26029,
                "end_time_offset": 29556
            },
            "words": {
                "vernacular": "Kwerepenhartepe aynanthe ngwetyanpe aperinenyerre.",
                "gloss": "Then we took them out in the morning."
            }
        },
        {
            "meta": {
                "id": 6,
                "begin_time_offset": 29556,
                "end_time_offset": 35922
            },
            "words": {
                "vernacular": "Nhape aynanthe arrtyeyenenherre apmerele perlaynelepe.",
                "gloss": "Then we went and held them in a clear place."
            }
        },
        {
            "meta": {
                "id": 7,
                "begin_time_offset": 35922,
                "end_time_offset": 38735
            },
            "words": {
                "vernacular": "Nhape aynantherre awepareyayne kwereye.",
                "gloss": "Then we waited for him [the helicopter man] for some time."
            }
        },
        {
            "meta": {
                "id": 8,
                "begin_time_offset": 38735,
                "end_time_offset": 40292
            },
            "words": {
                "vernacular": "ape aynanthe erlwarenherre pwelekelke.",
                "gloss": "Then we caught sight of the cattle."
            }
        },
        {
            "meta": {
                "id": 9,
                "begin_time_offset": 40292,
                "end_time_offset": 42950
            },
            "words": {
                "vernacular": "Yewe, pwelekepe nhartepe aperninenyerre",
                "gloss": "The cattle were brought [by the helicopter]"
            }
        },
        {
            "meta": {
                "id": 10,
                "begin_time_offset": 42950,
                "end_time_offset": 46844
            },
            "words": {
                "vernacular": "arlewetnpe kwerarteyene, errmetyinepe rwengke rtame akewentyeyayne.",
                "gloss": "in really huge numbers; dust was rising [from them] in the distance."
            }
        },
        {
            "meta": {
                "id": 11,
                "begin_time_offset": 46844,
                "end_time_offset": 49430
            },
            "words": {
                "vernacular": "Aynanthepe atyerte atnywenye rtame artnenge,",
                "gloss": "We went right into the bushes to hide [from the cattle]."
            }
        },
        {
            "meta": {
                "id": 12,
                "begin_time_offset": 49430,
                "end_time_offset": 51356
            },
            "words": {
                "vernacular": "Aynanthe awenyerrame atnter-atntaretnyenye",
                "gloss": "We stood around one by one [on horses]."
            }
        },
        {
            "meta": {
                "id": 13,
                "begin_time_offset": 51356,
                "end_time_offset": 54352
            },
            "words": {
                "vernacular": "Wele re aperninenye aynekanthe warle",
                "gloss": "Well, he [the helicopter man] brought them toward us."
            }
        },
        {
            "meta": {
                "id": 14,
                "begin_time_offset": 54352,
                "end_time_offset": 57437
            },
            "words": {
                "vernacular": "pweleke aynekanthe arrwekele arrtyenyerre.",
                "gloss": "And we held them [the cattle] in front."
            }
        },
        {
            "meta": {
                "id": 15,
                "begin_time_offset": 57437,
                "end_time_offset": 62452
            },
            "words": {
                "vernacular": "Pwelekepe apartame aperninenyerre apalpapmenherre alkenhe rtame.",
                "gloss": "He brought a really big mob of cattle."
            }
        },
        {
            "meta": {
                "id": 16,
                "begin_time_offset": 62452,
                "end_time_offset": 63485
            },
            "words": {
                "vernacular": "Kweretheyartepe,",
                "gloss": "After that"
            }
        },
        {
            "meta": {
                "id": 17,
                "begin_time_offset": 63485,
                "end_time_offset": 67625
            },
            "words": {
                "vernacular": "pwelekepe entyerretnenherre kngwerangkwerrepe, kngwerangkwerre aynantherre stopem-aylenye rtame.",
                "gloss": "then some cattle broke away but we blocked the rest."
            }
        },
        {
            "meta": {
                "id": 18,
                "begin_time_offset": 67625,
                "end_time_offset": 71180
            },
            "words": {
                "vernacular": "Akwerrpelinge aynanthe arntarntareyaynepenhelepe aynanthe areyayne",
                "gloss": "After we started guarding them [the cattle] like real new chums, we started watching it [the helicopter] only;"
            }
        },
        {
            "meta": {
                "id": 19,
                "begin_time_offset": 71180,
                "end_time_offset": 73867
            },
            "words": {
                "vernacular": "kwerepaperte alkerewepe aperte aynanthe areyaynepe.",
                "gloss": "we were only looking at it in the air."
            }
        },
        {
            "meta": {
                "id": 20,
                "begin_time_offset": 73867,
                "end_time_offset": 77186
            },
            "words": {
                "vernacular": "Ye renhe parte aynanthe areyaynepe.",
                "gloss": "Yes, we were only watching that one [the helicopter]."
            }
        },
        {
            "meta": {
                "id": 21,
                "begin_time_offset": 77186,
                "end_time_offset": 80822
            },
            "words": {
                "vernacular": "Aynekanthe rlwampe angkenherre, 'Wantewe rtame (?) arerrantye kwerartepe ane mpele?",
                "gloss": "The boss said to us, \"Hey, why are you looking at that ?\"."
            }
        },
        {
            "meta": {
                "id": 22,
                "begin_time_offset": 80822,
                "end_time_offset": 84964
            },
            "words": {
                "vernacular": "Errwanthe pwelekerewe nharte— arlwewene mpele.'",
                "gloss": " You're supposed to be chasing those cattle. "
            }
        },
        {
            "meta": {
                "id": 23,
                "begin_time_offset": 84964,
                "end_time_offset": 87740
            },
            "words": {
                "vernacular": "Aynanthe akwerrpelinge kwerarte paparte areyayne.",
                "gloss": "We were watching it because we really hadn't seen it before."
            }
        },
        {
            "meta": {
                "id": 24,
                "begin_time_offset": 87740,
                "end_time_offset": 92476
            },
            "words": {
                "vernacular": "Kweretheyartepe aynantharle arenhepenhepe aynantherre nhartepe aynanthe anenherre.",
                "gloss": "Then, after we had watched just the helicopter [and not the cattle], we sat down [for lunch (?)]."
            }
        },
        {
            "meta": {
                "id": 25,
                "begin_time_offset": 92476,
                "end_time_offset": 97074
            },
            "words": {
                "vernacular": "Akarrineyayne apertame repe erlkwengepe arlweyayne rtame arlkerarenyelepe.",
                "gloss": "The old man mustered again and chased [more cattle] with the helicopter."
            }
        },
        {
            "meta": {
                "id": 26,
                "begin_time_offset": 97074,
                "end_time_offset": 105604
            },
            "words": {
                "vernacular": "Kwene re aperninenyepe kwene parte artnekwene kwerartepe parte arrewinenye rarrele aperte ateretnyenye pwelekepe.",
                "gloss": "He drove them along low, he really chased them out from the thick scrub and frightened out a big mob of cattle with wind."
            }
        },
        {
            "meta": {
                "id": 27,
                "begin_time_offset": 105604,
                "end_time_offset": 106758
            },
            "words": {
                "vernacular": "Arlparlpe apmenhepame.",
                "gloss": "The cattle had trampled the ground."
            }
        },
        {
            "meta": {
                "id": 28,
                "begin_time_offset": 106758,
                "end_time_offset": 109887
            },
            "words": {
                "vernacular": "Mentye aperte errmetyinepe akewentyenye.",
                "gloss": "A lot of dust was rising."
            }
        },
        {
            "meta": {
                "id": 29,
                "begin_time_offset": 109887,
                "end_time_offset": 114803
            },
            "words": {
                "vernacular": "Aynanthepe ahelhe akine aynanthepe arlwenherre, aytnane apertame.",
                "gloss": "We chased them again unsuccessfully."
            }
        },
        {
            "meta": {
                "id": 30,
                "begin_time_offset": 114803,
                "end_time_offset": 117925
            },
            "words": {
                "vernacular": "Rlwampe erlkwengepe aynekantheyengele Joe-lepe alarrelparrenherre",
                "gloss": "Our boss, Joe Mengel hit things"
            }
        },
        {
            "meta": {
                "id": 31,
                "begin_time_offset": 117925,
                "end_time_offset": 121120
            },
            "words": {
                "vernacular": "arnewetye tyampe aperte arlpwarlparrenherre rtame re.",
                "gloss": "uprooting the conkerberry trees"
            }
        },
        {
            "meta": {
                "id": 32,
                "begin_time_offset": 121120,
                "end_time_offset": 123838
            },
            "words": {
                "vernacular": "wantelepe, Toyota-akelepe. \\n -akele",
                "gloss": "with the Toyota."
            }
        },
        {
            "meta": {
                "id": 33,
                "begin_time_offset": 123838,
                "end_time_offset": 126172
            },
            "words": {
                "vernacular": "Mentye ane tyerte atnywenyerre kwetnaye pwelekepe,",
                "gloss": "Never mind if a tired bullock went into [the bushes] to hide,"
            }
        },
        {
            "meta": {
                "id": 34,
                "begin_time_offset": 126172,
                "end_time_offset": 130477
            },
            "words": {
                "vernacular": "wele kwere arwele tyampe alarrelparrehe akanperele.",
                "gloss": "he drove through and knocked the bush down."
            }
        },
        {
            "meta": {
                "id": 35,
                "begin_time_offset": 130477,
                "end_time_offset": 135310
            },
            "words": {
                "vernacular": "Pweleke re artnperraytenye aperte makwere-warle atnywelp-atnywenyerre.",
                "gloss": "The bullock just ran away and went into the herd."
            }
        },
        {
            "meta": {
                "id": 36,
                "begin_time_offset": 135310,
                "end_time_offset": 139929
            },
            "words": {
                "vernacular": "Aynanthepe, mentye rtame aytnane kngwerangkwerrepe arlwenhe nantewakelepe. \\n -akele \\n aytnane or aynanthe?",
                "gloss": "We chased some [of the cattle] without any success on our horses."
            }
        },
        {
            "meta": {
                "id": 37,
                "begin_time_offset": 139929,
                "end_time_offset": 141849
            },
            "words": {
                "vernacular": "Alkaperte",
                "gloss": "Alright."
            }
        },
        {
            "meta": {
                "id": 38,
                "begin_time_offset": 141849,
                "end_time_offset": 144852
            },
            "words": {
                "vernacular": "Nhape aynanthe alperrinenyerre yarte-warlelke.",
                "gloss": "Then we drove them back to the yard."
            }
        },
        {
            "meta": {
                "id": 39,
                "begin_time_offset": 144852,
                "end_time_offset": 151733
            },
            "words": {
                "vernacular": "Nhartepe helicopter arenyepe rlwampepe wethapenye ahernarlepe ertwenherre, antethenenhe.",
                "gloss": "Then the helicopter man came down to the ground and stopped."
            }
        },
        {
            "meta": {
                "id": 40,
                "begin_time_offset": 151733,
                "end_time_offset": 154230
            },
            "words": {
                "vernacular": "'Alewe rtame alkaperte' mpele.",
                "gloss": "Alright now."
            }
        },
        {
            "meta": {
                "id": 41,
                "begin_time_offset": 154230,
                "end_time_offset": 158206
            },
            "words": {
                "vernacular": "'Yewe'. Nhartepe rlwampe angkenherre erlkwepe,",
                "gloss": "Okay. [\"Let's take a break.\"] the boss said"
            }
        },
        {
            "meta": {
                "id": 42,
                "begin_time_offset": 158206,
                "end_time_offset": 162696
            },
            "words": {
                "vernacular": "'Alewe (?) aynanthe alperinewene mpele, yartewarlelke.'",
                "gloss": "Well let's take them back to the yard now."
            }
        },
        {
            "meta": {
                "id": 43,
                "begin_time_offset": 162696,
                "end_time_offset": 168203
            },
            "words": {
                "vernacular": "Kweretheyartepe, rlwampepe repe arlkerarle-arrelparrenhe apertame.",
                "gloss": "Then the boss took off again [with the helicopter]."
            }
        },
        {
            "meta": {
                "id": 44,
                "begin_time_offset": 168203,
                "end_time_offset": 174839
            },
            "words": {
                "vernacular": "helicopter kwerarlartepe atnywengelepe wethapenye arlkerarle alpenhe apertame.",
                "gloss": "Getting into the helicopter he went back into the air."
            }
        },
        {
            "meta": {
                "id": 45,
                "begin_time_offset": 174839,
                "end_time_offset": 177772
            },
            "words": {
                "vernacular": "Nhartepe aynanthepe startemaylenyerre pweleke kwerartepe",
                "gloss": "Then we started droving the cattle;"
            }
        },
        {
            "meta": {
                "id": 46,
                "begin_time_offset": 177772,
                "end_time_offset": 183400
            },
            "words": {
                "vernacular": "Akngerrake aynanthe alperinenyepe, yartewarlepe, apmere Emu Bore-warlane.",
                "gloss": "we brought them eastward to the yard at Emu Bore."
            }
        },
        {
            "meta": {
                "id": 47,
                "begin_time_offset": 183400,
                "end_time_offset": 185991
            },
            "words": {
                "vernacular": "Areyayne aynanthe alperinenye wele re—",
                "gloss": "We were bringing them back"
            }
        },
        {
            "meta": {
                "id": 48,
                "begin_time_offset": 185991,
                "end_time_offset": 192126
            },
            "words": {
                "vernacular": "akngerrake theyame nhartepe entyerrenenhe rtame, partaperte arnpatyarrenhepe arlwenhepe, mentyepe arlwenhe nantewakele aytnane aperte!",
                "gloss": "and they all broke out again from the east and rushed quickly away. We chased them without any success with horses and motor vehicles."
            }
        },
        {
            "meta": {
                "id": 49,
                "begin_time_offset": 192126,
                "end_time_offset": 193497
            },
            "words": {
                "vernacular": "mwetekakele tyampepe. \\n -akele",
                "gloss": "and motor vehicles."
            }
        },
        {
            "meta": {
                "id": 50,
                "begin_time_offset": 193497,
                "end_time_offset": 197681
            },
            "words": {
                "vernacular": "Peyakele,  repe arlkerarenyelepe arlwenhe again nthenaynepe.",
                "gloss": "No luck; but he chased them again with the helicopter on the other side."
            }
        },
        {
            "meta": {
                "id": 51,
                "begin_time_offset": 197681,
                "end_time_offset": 200850
            },
            "words": {
                "vernacular": "arlwenhe rtame alperninenyerre.",
                "gloss": "He chased them and brought them back."
            }
        },
        {
            "meta": {
                "id": 52,
                "begin_time_offset": 200850,
                "end_time_offset": 205799
            },
            "words": {
                "vernacular": "Nhape aynanthe alpenherre, alperninenye aperte re, kwerartepe alkerarenyelepe.",
                "gloss": "Then (we came back >) he still brought them back with the helicopter."
            }
        },
        {
            "meta": {
                "id": 53,
                "begin_time_offset": 205799,
                "end_time_offset": 208768
            },
            "words": {
                "vernacular": "Mwetekele tyampe alarrelparrenherre.",
                "gloss": "[Some cattle] were bumped along with the Toyotas as well."
            }
        },
        {
            "meta": {
                "id": 54,
                "begin_time_offset": 208768,
                "end_time_offset": 211656
            },
            "words": {
                "vernacular": "Alkaperte aynanthe alperninye mweteke atherrelarte rtame.",
                "gloss": "Alright, we brought them along with two vehicles"
            }
        },
        {
            "meta": {
                "id": 55,
                "begin_time_offset": 211656,
                "end_time_offset": 214093
            },
            "words": {
                "vernacular": "arntarnt-arerlarerl-arrenhepe.",
                "gloss": "and watched them all the way along."
            }
        },
        {
            "meta": {
                "id": 56,
                "begin_time_offset": 214093,
                "end_time_offset": 217372
            },
            "words": {
                "vernacular": "Mpeletherraperte errkerreletherrepe apenherre.",
                "gloss": "They went along one on each side [of the cattle]."
            }
        },
        {
            "meta": {
                "id": 57,
                "begin_time_offset": 217372,
                "end_time_offset": 221683
            },
            "words": {
                "vernacular": "Kweretheyarte aynanthe alperninenyerreye akwey-alpenhe aynantherre.",
                "gloss": "Then we drove them all the way back and put them in the yard."
            }
        },
        {
            "meta": {
                "id": 58,
                "begin_time_offset": 221683,
                "end_time_offset": 223689
            },
            "words": {
                "vernacular": "Nhartepe aynanthe dinner-welke alpenhe,",
                "gloss": "Then we went back for dinner;"
            }
        },
        {
            "meta": {
                "id": 59,
                "begin_time_offset": 223689,
                "end_time_offset": 226236
            },
            "words": {
                "vernacular": "dinner-lke aynanthe aynewethelke, aynanthe nhartepe alpenherre.",
                "gloss": "We [went] to eat dinner now and he [the helicopter man] went back."
            }
        },
        {
            "meta": {
                "id": 60,
                "begin_time_offset": 226236,
                "end_time_offset": 229142
            },
            "words": {
                "vernacular": "dinner-pe aynanthe ayney-alpenherre.",
                "gloss": "We went back and ate dinner."
            }
        },
        {
            "meta": {
                "id": 61,
                "begin_time_offset": 229142,
                "end_time_offset": 233230
            },
            "words": {
                "vernacular": "Alkaperte, dinnerelke aynanthe aynenye.",
                "gloss": "Alright, we ate dinner then."
            }
        },
        {
            "meta": {
                "id": 62,
                "begin_time_offset": 233230,
                "end_time_offset": 237469
            },
            "words": {
                "vernacular": "Kwerepenhartepe aynantherre aneyaynelke.",
                "gloss": "After dinner we sat for a while."
            }
        },
        {
            "meta": {
                "id": 63,
                "begin_time_offset": 237469,
                "end_time_offset": 240514
            },
            "words": {
                "vernacular": "'Nthakenhame ywekengewanenye yartetheyepe?'",
                "gloss": "[The cattle] can't be let out of the yard."
            }
        },
        {
            "meta": {
                "id": 64,
                "begin_time_offset": 240514,
                "end_time_offset": 243879
            },
            "words": {
                "vernacular": "Mentye atanthe akwenherre yartele intemparte atareltheyene (?)",
                "gloss": "They put them in the yard to stay [overnight] because they were very wild."
            }
        },
        {
            "meta": {
                "id": 65,
                "begin_time_offset": 243879,
                "end_time_offset": 249550
            },
            "words": {
                "vernacular": "Yeah mentye rtame anenherre, alkaperte",
                "gloss": "O.K., they were left to stay there."
            }
        },
        {
            "meta": {
                "id": 66,
                "begin_time_offset": 249550,
                "end_time_offset": 252553
            },
            "words": {
                "vernacular": "Nhartepe re aneyayne apertame.",
                "gloss": "Alright. Then they [the cattle] continued to stay there."
            }
        },
        {
            "meta": {
                "id": 67,
                "begin_time_offset": 252553,
                "end_time_offset": 255641
            },
            "words": {
                "vernacular": "Nharte ngwengewe athathe apertame",
                "gloss": "Until tomorrow,"
            }
        },
        {
            "meta": {
                "id": 68,
                "begin_time_offset": 255641,
                "end_time_offset": 258153
            },
            "words": {
                "vernacular": "Ngwetyanpewe athathe apertame",
                "gloss": "Until the morning."
            }
        },
        {
            "meta": {
                "id": 69,
                "begin_time_offset": 258153,
                "end_time_offset": 260650
            },
            "words": {
                "vernacular": "Mentye room  kngwerele rtame akwenherre.",
                "gloss": "They put them in another section [of the yard] and left them there."
            }
        },
        {
            "meta": {
                "id": 70,
                "begin_time_offset": 260650,
                "end_time_offset": 262462
            },
            "words": {
                "vernacular": "alkaperte",
                "gloss": "Alright."
            }
        },
        {
            "meta": {
                "id": 71,
                "begin_time_offset": 262462,
                "end_time_offset": 266294
            },
            "words": {
                "vernacular": "Enwenhe aynanthe atnkwarengelepe.",
                "gloss": "We slept the night."
            }
        },
        {
            "meta": {
                "id": 72,
                "begin_time_offset": 266294,
                "end_time_offset": 276608
            },
            "words": {
                "vernacular": "Kwerepenhartepe, ngwentyanpe kngwerelepe re apenhe apertame.",
                "gloss": "The next morning we went out again."
            }
        },
        {
            "meta": {
                "id": 73,
                "begin_time_offset": 276608,
                "end_time_offset": 278319
            },
            "words": {
                "vernacular": "Alright,",
                "gloss": "Alright"
            }
        },
        {
            "meta": {
                "id": 74,
                "begin_time_offset": 278319,
                "end_time_offset": 282293
            },
            "words": {
                "vernacular": "Nhartepe, nhartepe aynanthe apenherre,",
                "gloss": "Then we went"
            }
        },
        {
            "meta": {
                "id": 75,
                "begin_time_offset": 282293,
                "end_time_offset": 287688
            },
            "words": {
                "vernacular": "Ill tell em story like that",
                "gloss": "Im telling a story"
            }
        },
        {
            "meta": {
                "id": 76,
                "begin_time_offset": 287688,
                "end_time_offset": 290854
            },
            "words": {
                "vernacular": "Nhape aynanthe apenherre altemarle apertame,",
                "gloss": "Then we went west again [from Emu Bore]."
            }
        },
        {
            "meta": {
                "id": 77,
                "begin_time_offset": 290854,
                "end_time_offset": 294604
            },
            "words": {
                "vernacular": "Nhartepe aynanthe awepareyayne elkwerrelelke",
                "gloss": "Then we waited part way."
            }
        },
        {
            "meta": {
                "id": 78,
                "begin_time_offset": 294604,
                "end_time_offset": 300350
            },
            "words": {
                "vernacular": "Nhartepe re musteremaylenye alkenhe apertame wethapenye arerrknge kngwerarre artnperraytenhepenhe.",
                "gloss": "Then he [the helicopter man] mustered a big mob again, the half that had got away before."
            }
        },
        {
            "meta": {
                "id": 79,
                "begin_time_offset": 300350,
                "end_time_offset": 302943
            },
            "words": {
                "vernacular": "58 Nhape muster'm-aylenye aynanthe aweparrenherre. \\e Then he mustered and we waited.",
                "gloss": ""
            }
        },
        {
            "meta": {
                "id": 80,
                "begin_time_offset": 302943,
                "end_time_offset": 310475
            },
            "words": {
                "vernacular": "Nhape twerarte ilenyerre arltemarlepe kwerarte ilenye alpalpapmenhe artnt-arrkerarrelke ilenyerre, ya mpelarte arltelwenyelke.",
                "gloss": "Then he got all the cattle in the west; he got a big mob from this side of the hill, from the west side."
            }
        },
        {
            "meta": {
                "id": 81,
                "begin_time_offset": 310475,
                "end_time_offset": 315218
            },
            "words": {
                "vernacular": "Ileyernalpenhe intemaperteye akarrinenyerre aynanthe aweparrenhe.",
                "gloss": "He kept getting them and gathering them as he came toward us and we waited."
            }
        },
        {
            "meta": {
                "id": 82,
                "begin_time_offset": 315218,
                "end_time_offset": 317568
            },
            "words": {
                "vernacular": "He brought them to meet us.",
                "gloss": "Nhape aynekantharle pwitinenyerre."
            }
        },
        {
            "meta": {
                "id": 83,
                "begin_time_offset": 317568,
                "end_time_offset": 320017
            },
            "words": {
                "vernacular": "Nhape aynanthe alperninenyerre.",
                "gloss": "Then we brought them back."
            }
        },
        {
            "meta": {
                "id": 84,
                "begin_time_offset": 320017,
                "end_time_offset": 322827
            },
            "words": {
                "vernacular": "Nhartepe re akarrinenyerre akngwerrelenyelke rtame.",
                "gloss": "Then he mustered next on the east side."
            }
        },
        {
            "meta": {
                "id": 85,
                "begin_time_offset": 322827,
                "end_time_offset": 325552
            },
            "words": {
                "vernacular": "Nhape aynekantharle alperninenyerre.",
                "gloss": "Then he brought them toward us."
            }
        },
        {
            "meta": {
                "id": 86,
                "begin_time_offset": 325552,
                "end_time_offset": 331595
            },
            "words": {
                "vernacular": "Nhape aynanthe anenherre, aweparrenherre kwere, arlwenhe re ya, arremerrewarle again arlwenherrepe.",
                "gloss": "We kept sitting and waiting for them and he kept chasing them; yes, he chased them all over the place again."
            }
        },
        {
            "meta": {
                "id": 87,
                "begin_time_offset": 331595,
                "end_time_offset": 336188
            },
            "words": {
                "vernacular": "Elpayele pe kwerelartepe, aylpelang-alkenharre aylpelepe.",
                "gloss": "At the creek, where the river red gum trees are big."
            }
        },
        {
            "meta": {
                "id": 88,
                "begin_time_offset": 336188,
                "end_time_offset": 341019
            },
            "words": {
                "vernacular": "Nharte paperte rarrelepe akngwakel-akngwakelaylenyerre, rarrelepe.",
                "gloss": "There he made [the trees] wobble with the wind [from the helicopter]."
            }
        },
        {
            "meta": {
                "id": 89,
                "begin_time_offset": 341019,
                "end_time_offset": 344326
            },
            "words": {
                "vernacular": "intemaperte elpayewarle wethapenye kwene atnywenyepe.",
                "gloss": "[The cattle] would constantly get into the creek."
            }
        },
        {
            "meta": {
                "id": 90,
                "begin_time_offset": 344326,
                "end_time_offset": 348748
            },
            "words": {
                "vernacular": "Rarrelepe kwere pwerlepwerl-aylenyerrepe intemaperte.",
                "gloss": "The wind would just chase them out every time."
            }
        },
        {
            "meta": {
                "id": 91,
                "begin_time_offset": 348748,
                "end_time_offset": 355456
            },
            "words": {
                "vernacular": "Alpalpangenhe kwerarte pwelekepe aterepe anpatyarrenhe aperte aynekantharlepe; twemperele ame aynanthe aneyayne.",
                "gloss": "A big mob of cattle ran scared from there toward us; we were on the bank."
            }
        },
        {
            "meta": {
                "id": 92,
                "begin_time_offset": 355456,
                "end_time_offset": 358352
            },
            "words": {
                "vernacular": "Ya, intemapertepe arrewinenyepange.",
                "gloss": "O.K., he just chased them right out. [?]"
            }
        },
        {
            "meta": {
                "id": 93,
                "begin_time_offset": 358352,
                "end_time_offset": 363362
            },
            "words": {
                "vernacular": "Aynanthepe erlwarenhe, ‘Re aynekanthangkwerrapenye aperrane; aynekanthangkwerre arrewinenye rarre lepe.’",
                "gloss": "We watched [and thought], ‘They are coming sort of around us; the wind has chased them around where we are.’"
            }
        },
        {
            "meta": {
                "id": 94,
                "begin_time_offset": 363362,
                "end_time_offset": 366638
            },
            "words": {
                "vernacular": "Aterinenyerre kwerartepe pwelekepe.",
                "gloss": "It frightened the cattle."
            }
        },
        {
            "meta": {
                "id": 95,
                "begin_time_offset": 366638,
                "end_time_offset": 373432
            },
            "words": {
                "vernacular": "Nhape aynanthe akarrarrelparrenhe  apertame; ya, nhape aynantherre alperinenyerre akngerrake  apertame, yartewarle apertame.",
                "gloss": "Then we all gathered together again and we drove them back eastward to the yard."
            }
        },
        {
            "meta": {
                "id": 96,
                "begin_time_offset": 373432,
                "end_time_offset": 376778
            },
            "words": {
                "vernacular": "Alperinenye aynantheye, ape antethenenherre.",
                "gloss": "We took them all the way back and then just stopped."
            }
        },
        {
            "meta": {
                "id": 97,
                "begin_time_offset": 376778,
                "end_time_offset": 379716
            },
            "words": {
                "vernacular": "Rlwampelamerne atewenhanthe arenherre.",
                "gloss": "The white men all saw one another."
            }
        },
        {
            "meta": {
                "id": 98,
                "begin_time_offset": 379716,
                "end_time_offset": 384786
            },
            "words": {
                "vernacular": "Arrwekelelke repe alkerarenyepe alpenherre, apmerewarle antetheney-alpenhe.",
                "gloss": "The helicopter went back ahead to the stock camp and landed."
            }
        },
        {
            "meta": {
                "id": 99,
                "begin_time_offset": 384786,
                "end_time_offset": 389240
            },
            "words": {
                "vernacular": "Aynanthe papertelke rtame alperinenyepe, yartewarle aynanthe akwenherre.",
                "gloss": "We drove them back by ourselves now, and put them in the yard."
            }
        },
        {
            "meta": {
                "id": 100,
                "begin_time_offset": 389240,
                "end_time_offset": 392260
            },
            "words": {
                "vernacular": "Nhape aynanthe dinnepe aynenyerre.",
                "gloss": "Then we ate dinner."
            }
        },
        {
            "meta": {
                "id": 101,
                "begin_time_offset": 392260,
                "end_time_offset": 397844
            },
            "words": {
                "vernacular": "Alkaperte. Alkaperte ante finish-arrenherre; well atye awenyerrepenhe nyape ampilerrantye.",
                "gloss": "Alright. Alright I have just finished. Well, I'll tell just this one further story."
            }
        },
        {
            "meta": {
                "id": 102,
                "begin_time_offset": 397844,
                "end_time_offset": 400633
            },
            "words": {
                "vernacular": "Alkaperte. Nhape aynanthe dinnewarle alpenherre.",
                "gloss": "Alright, we went back for dinner."
            }
        },
        {
            "meta": {
                "id": 103,
                "begin_time_offset": 400633,
                "end_time_offset": 402584
            },
            "words": {
                "vernacular": "Dinnepe aynantherre aynenyerre.",
                "gloss": "We ate dinner."
            }
        },
        {
            "meta": {
                "id": 104,
                "begin_time_offset": 402584,
                "end_time_offset": 407093
            },
            "words": {
                "vernacular": "Anthepenharte aynantherre antethenenherrelke.",
                "gloss": "After that we sat down."
            }
        },
        {
            "meta": {
                "id": 105,
                "begin_time_offset": 407093,
                "end_time_offset": 411105
            },
            "words": {
                "vernacular": "Alkaperte; dinnepe aynanthe aynenyerre.",
                "gloss": "Alright, we ate dinner."
            }
        },
        {
            "meta": {
                "id": 106,
                "begin_time_offset": 411105,
                "end_time_offset": 415791
            },
            "words": {
                "vernacular": "Yawe. Nhape aynantherre anenhe apertame.",
                "gloss": "Yes, we sat around again."
            }
        },
        {
            "meta": {
                "id": 107,
                "begin_time_offset": 415791,
                "end_time_offset": 419860
            },
            "words": {
                "vernacular": "Nhape aynanthe awenyerrepenhe lke apenherre atnteyerrelke.",
                "gloss": "Then we went out once more, to the south this time."
            }
        },
        {
            "meta": {
                "id": 108,
                "begin_time_offset": 419860,
                "end_time_offset": 423387
            },
            "words": {
                "vernacular": "Atnteyerrelke aynanthe arrtyeyenenherre.",
                "gloss": "We went to hold them in the south."
            }
        },
        {
            "meta": {
                "id": 109,
                "begin_time_offset": 423387,
                "end_time_offset": 429897
            },
            "words": {
                "vernacular": "Nhartepe ileyernalpenherre rwengke yene Apewempe arrkerarre pweleke kwerartepe.",
                "gloss": "Then he mustered the cattle toward us starting from far away, just about at Taylor Crossing."
            }
        },
        {
            "meta": {
                "id": 110,
                "begin_time_offset": 429897,
                "end_time_offset": 438620
            },
            "words": {
                "vernacular": "Aynanthe erlwareyayne, alpalpapmenhe artetyewe ertnwanthewepe kwerartepe.",
                "gloss": "We could see — getting a huge mob out of the mulga scrub."
            }
        },
        {
            "meta": {
                "id": 111,
                "begin_time_offset": 438620,
                "end_time_offset": 443896
            },
            "words": {
                "vernacular": "Anteyerretheyelke ileyernalpenherre kwerartepe pwelekepe;",
                "gloss": "He came along from the south now getting the cattle,"
            }
        },
        {
            "meta": {
                "id": 112,
                "begin_time_offset": 443896,
                "end_time_offset": 448051
            },
            "words": {
                "vernacular": "nharte alpalpapmenherre artnewepe.",
                "gloss": "that huge mob, out from the scrub."
            }
        },
        {
            "meta": {
                "id": 113,
                "begin_time_offset": 448051,
                "end_time_offset": 453452
            },
            "words": {
                "vernacular": "Elpayewe plainewe rtame aynanthe erlwareyayne: 'Yekaye pweleke angkere  erlwarewerne mpele!'",
                "gloss": "We were watching at the side of the creek; \"Wow, look at the big mob of cattle this time !\""
            }
        },
        {
            "meta": {
                "id": 114,
                "begin_time_offset": 453452,
                "end_time_offset": 461450
            },
            "words": {
                "vernacular": "Aparte wethapenye stringin'-arreyaynepe re, ahernepe kwere pwelyerrelyerre atneyayne, pwelekewepe.",
                "gloss": "They were stringing along and the dirt was rising from the cattle."
            }
        },
        {
            "meta": {
                "id": 115,
                "begin_time_offset": 461450,
                "end_time_offset": 468964
            },
            "words": {
                "vernacular": "Repe aherne kwenele yene wethapenye kwen-arreyernalpenhepe re rarrelepe ater-ineyernalpenherre.",
                "gloss": "He came right down almost to the ground and frightened them all the way along with the wind."
            }
        },
        {
            "meta": {
                "id": 116,
                "begin_time_offset": 468964,
                "end_time_offset": 475271
            },
            "words": {
                "vernacular": "Aylanthepe mpelarte old Sam-pe artnpenhe akngerrake.",
                "gloss": "We thus-- old Sam rode to the east."
            }
        },
        {
            "meta": {
                "id": 117,
                "begin_time_offset": 475271,
                "end_time_offset": 478591
            },
            "words": {
                "vernacular": "Aylanthe atnenyeyenenhe akngerrake.",
                "gloss": "The two of us went and stood to the east."
            }
        },
        {
            "meta": {
                "id": 118,
                "begin_time_offset": 478591,
                "end_time_offset": 482341
            },
            "words": {
                "vernacular": "Aylanthe erlw arenhelke artnekwenele aylanthe atneyenenhepe.",
                "gloss": "We went and stood in the thick scrub and watched [from there]."
            }
        },
        {
            "meta": {
                "id": 119,
                "begin_time_offset": 482341,
                "end_time_offset": 490439
            },
            "words": {
                "vernacular": "Repe aylekanthangkwerrapenyepe kwenengepe apeyern-alpenhe kwene, nhape aylekanthe amerne (?) nantewepe atere rtame alethe atneyenenhe (?).",
                "gloss": "He came down low around where the two of us were and our horses bolted from fright with us on them."
            }
        },
        {
            "meta": {
                "id": 120,
                "begin_time_offset": 490439,
                "end_time_offset": 493813
            },
            "words": {
                "vernacular": "Aterepe aylekanthakakepe, jump-arrenherre.",
                "gloss": "They jumped with fright with us on them."
            }
        },
        {
            "meta": {
                "id": 121,
                "begin_time_offset": 493813,
                "end_time_offset": 499903
            },
            "words": {
                "vernacular": "Mentye ane, repe pwelekepe atnywelp-atnywenye pweleke makwerlewarlepe.",
                "gloss": "Never mind, the cattle went into the man herd."
            }
        },
        {
            "meta": {
                "id": 122,
                "begin_time_offset": 499903,
                "end_time_offset": 503759
            },
            "words": {
                "vernacular": "Relke anthenaynepe atnenyeyenenherre alkerarenyepe.",
                "gloss": "The helicopter then went around and hovered on the other side [of the herd]."
            }
        },
        {
            "meta": {
                "id": 123,
                "begin_time_offset": 503759,
                "end_time_offset": 510924
            },
            "words": {
                "vernacular": "Yawe, alkaperte. Nhape aynanthe alperinenyelke.",
                "gloss": "Alright then; then we drove them back."
            }
        },
        {
            "meta": {
                "id": 124,
                "begin_time_offset": 510924,
                "end_time_offset": 515277
            },
            "words": {
                "vernacular": "Rlwampamerne atewenhanthe angkenherre, 'Alewerteme alkaperte mpele.'",
                "gloss": "The white men talked to one another, 'Well alright then."
            }
        },
        {
            "meta": {
                "id": 125,
                "begin_time_offset": 515277,
                "end_time_offset": 518065
            },
            "words": {
                "vernacular": "Alpewernelke rtame aynanthe mpele apmerewarlelke  mpele.",
                "gloss": "Let's go back to camp now."
            }
        },
        {
            "meta": {
                "id": 126,
                "begin_time_offset": 518065,
                "end_time_offset": 520130
            },
            "words": {
                "vernacular": "Yartewarle alperinewerne mpele.'",
                "gloss": "Let's take them back to the yard.'"
            }
        },
        {
            "meta": {
                "id": 127,
                "begin_time_offset": 520130,
                "end_time_offset": 523673
            },
            "words": {
                "vernacular": "\"Yawe. \" Nhape aynanthe alperinenyerre.",
                "gloss": "\"O.K.\" Then we started driving them back."
            }
        },
        {
            "meta": {
                "id": 128,
                "begin_time_offset": 523673,
                "end_time_offset": 528421
            },
            "words": {
                "vernacular": "Nhape aynanthe alperinenyerre akwey-alpenherre yartewarlepe.",
                "gloss": "Then we drove them all the way back and put them in the yard."
            }
        },
        {
            "meta": {
                "id": 129,
                "begin_time_offset": 528421,
                "end_time_offset": 533213
            },
            "words": {
                "vernacular": "Alkaperte. Nhape aynanthe alpenherre ngayelelke aynanthe aynanthe aynewethelke aynanthe alpenherre.",
                "gloss": "Alright. Then we went back [to the stock camp] to eat some food."
            }
        },
        {
            "meta": {
                "id": 130,
                "begin_time_offset": 533213,
                "end_time_offset": 537576
            },
            "words": {
                "vernacular": "Nantewepe aynanthe perrtyey-alpenherre arleyale makwerle yene.",
                "gloss": "We tied a great number of horses to trees."
            }
        },
        {
            "meta": {
                "id": 131,
                "begin_time_offset": 537576,
                "end_time_offset": 541105
            },
            "words": {
                "vernacular": "Repe alkerarenyepe aneyalpenhe apertame apmerelepe.",
                "gloss": "The helicopter stayed at the camp again."
            }
        },
        {
            "meta": {
                "id": 132,
                "begin_time_offset": 541105,
                "end_time_offset": 545302
            },
            "words": {
                "vernacular": "Nhape aynanthe ngayelewelke alpenhe cook-warlelke.",
                "gloss": "Then we went back for food to the cook."
            }
        },
        {
            "meta": {
                "id": 133,
                "begin_time_offset": 545302,
                "end_time_offset": 547968
            },
            "words": {
                "vernacular": "Cook arre aneyayne rtame arrwekelepe.",
                "gloss": "To where the cook was before."
            }
        },
        {
            "meta": {
                "id": 134,
                "begin_time_offset": 547968,
                "end_time_offset": 554970
            },
            "words": {
                "vernacular": "Artweye erlkwamerne kngweramerne tyampe atneyayne, artnwengawe apmerelepe.",
                "gloss": "Some old men were staying at that place too, and some children."
            }
        },
        {
            "meta": {
                "id": 135,
                "begin_time_offset": 554970,
                "end_time_offset": 562507
            },
            "words": {
                "vernacular": "Ya, ngayelewelke aynanthe nhape ertwenherre, ngayelelke aynanthe aynenyerre, dinner. Alkaperte.",
                "gloss": "Yes, we got down [from our horses] for food; we ate food, dinner. Alright."
            }
        },
        {
            "meta": {
                "id": 136,
                "begin_time_offset": 562507,
                "end_time_offset": 568412
            },
            "words": {
                "vernacular": "Alewertame aynantherre kngwerewarlelke rtame apewethe mpele.",
                "gloss": "Well, we'll go to another place now [to muster]."
            }
        },
        {
            "meta": {
                "id": 137,
                "begin_time_offset": 568412,
                "end_time_offset": 571690
            },
            "words": {
                "vernacular": "Ya rlwampepe angkenke, 'Alkaperte mpel awe.'",
                "gloss": "The boss says, 'Alright then."
            }
        },
        {
            "meta": {
                "id": 138,
                "begin_time_offset": 571690,
                "end_time_offset": 576627
            },
            "words": {
                "vernacular": "Ngwengewe rtame aynantherre truck'm-aylewethe pwelekpane mpele. \"",
                "gloss": "We'll truck the cattle tomorrow.\""
            }
        },
        {
            "meta": {
                "id": 139,
                "begin_time_offset": 576627,
                "end_time_offset": 579112
            },
            "words": {
                "vernacular": "Alewe mpele.",
                "gloss": "'oh yeah'"
            }
        },
        {
            "meta": {
                "id": 140,
                "begin_time_offset": 579112,
                "end_time_offset": 587462
            },
            "words": {
                "vernacular": "Alkaperte. Repe rlwampepe alkerarenyepe apenhelke,  apmerewarle, wantewarlelke rtame, Murray Down'arlelke rtame.",
                "gloss": "Finished. The helicopter pilot then landed at Murray Downs."
            }
        },
        {
            "meta": {
                "id": 141,
                "begin_time_offset": 587462,
                "end_time_offset": 591838
            },
            "words": {
                "vernacular": "Nhape aynernanthepelke rtame brand'm-ayleyayne kngwerangkwerrepe.",
                "gloss": "Then we started branding some [the cleanskins];"
            }
        },
        {
            "meta": {
                "id": 142,
                "begin_time_offset": 591838,
                "end_time_offset": 599759
            },
            "words": {
                "vernacular": "Alkaperte aynantherre wethapenye truckemayleyayne, antengepe.",
                "gloss": "Alright, we started trucking them afterward."
            }
        },
        {
            "meta": {
                "id": 143,
                "begin_time_offset": 599759,
                "end_time_offset": 603361
            },
            "words": {
                "vernacular": "Alkaperte.",
                "gloss": "That's it."
            }
        }
    ]
}